<svg width="214" height="95" viewBox="0 0 214 95" fill="none" xmlns="http://www.w3.org/2000/svg">
<rect width="214" height="95" rx="47.5" fill="white"/>
<path d="M69.2825 50.5794H71.2128V53.0092H58.125V40.9375H60.7504V50.5794H66.6765V40.9375H69.3019V50.5794H69.2825Z" fill="#47237F"/>
<path d="M85.1879 40.9375V53.0092H82.6203V42.3418L77.9685 53.0092H73.2969V40.9375H75.8642V51.3958L80.4199 40.9375H85.1879Z" fill="#47237F"/>
<path d="M101.519 46.9283C101.519 48.6178 100.94 50.06 99.8008 51.237C98.6617 52.4326 97.2912 53.078 95.67 53.1537V54.5015H93.0834V53.1537C91.481 53.0593 90.1106 52.4136 88.9521 51.2178C87.8131 50.0221 87.2344 48.5795 87.2344 46.9095C87.2344 45.2392 87.8131 43.7966 88.9521 42.6008C90.0912 41.4239 91.4616 40.7785 93.0834 40.6836V39.3359H95.67V40.6836C97.2912 40.7785 98.6617 41.4239 99.8008 42.6008C100.94 43.7966 101.5 45.2201 101.5 46.8904L101.519 46.9283ZM90.7282 44.29C90.1106 44.9924 89.7821 45.8653 89.7821 46.9283C89.7821 47.9912 90.0912 48.8455 90.7282 49.5667C91.3458 50.2689 92.1373 50.6674 93.0834 50.7436V43.1321C92.1373 43.2083 91.3651 43.6067 90.7282 44.3091V44.29ZM95.67 50.7244C96.6159 50.6487 97.3878 50.2499 98.0247 49.5475C98.6428 48.8455 98.9707 47.9724 98.9707 46.9095C98.9707 45.8463 98.6617 45.0114 98.0247 44.3091C97.4072 43.6067 96.6159 43.2083 95.67 43.0942V50.7053V50.7244Z" fill="#47237F"/>
<path d="M103.336 40.9321H106V42.5263C106.965 41.3497 108.297 40.7422 109.957 40.7422C111.617 40.7422 113.104 41.3497 114.32 42.5832C115.517 43.7981 116.134 45.2594 116.134 46.9677C116.134 48.6759 115.536 50.1756 114.339 51.3713C113.142 52.5862 111.694 53.1745 109.976 53.1745C108.258 53.1745 106.965 52.567 106.019 51.3525V55.8699H103.355V40.9129L103.336 40.9321ZM105.807 46.9677C105.807 48.0119 106.173 48.9229 106.926 49.663C107.679 50.4225 108.606 50.783 109.687 50.783C110.768 50.783 111.675 50.4033 112.428 49.663C113.181 48.904 113.548 48.0119 113.548 46.9677C113.548 45.924 113.181 44.9938 112.428 44.2536C111.675 43.5133 110.768 43.1336 109.668 43.1336C108.567 43.1336 107.66 43.5133 106.907 44.2536C106.154 44.9938 105.768 45.9048 105.768 46.9489L105.807 46.9677Z" fill="#47237F"/>
<path d="M119.415 42.5489C120.632 41.3339 122.138 40.7266 123.914 40.7266C125.69 40.7266 127.195 41.3339 128.431 42.5489C129.666 43.7632 130.284 45.225 130.284 46.952C130.284 48.6794 129.666 50.1599 128.431 51.3748C127.195 52.5893 125.69 53.1967 123.914 53.1967C122.138 53.1967 120.632 52.5893 119.415 51.3556C118.18 50.1408 117.582 48.6603 117.582 46.952C117.582 45.2438 118.2 43.7632 119.435 42.5489H119.415ZM120.111 46.952C120.111 48.015 120.478 48.9263 121.212 49.6666C121.945 50.4067 122.852 50.7861 123.914 50.7861C124.975 50.7861 125.902 50.4067 126.635 49.6474C127.369 48.8879 127.736 47.9771 127.736 46.9333C127.736 45.8892 127.369 44.959 126.635 44.2187C125.902 43.4785 124.995 43.0992 123.914 43.0992C122.833 43.0992 121.926 43.4785 121.212 44.2187C120.478 44.959 120.129 45.8703 120.129 46.9333L120.111 46.952Z" fill="#47237F"/>
<path d="M70.6128 67.8096V70.0874H58.2969V67.8096C58.8184 67.8096 59.2622 67.6956 59.5906 67.449C59.938 67.2213 60.1694 66.8795 60.3047 66.4431C60.4396 66.0064 60.5362 65.608 60.5749 65.2661C60.6137 64.9056 60.6521 64.488 60.6521 63.9756V58.0156H70.6128V67.8096ZM62.5052 67.8096H67.9681V60.2934H63.2969V63.9377C63.2969 65.4939 63.0267 66.7846 62.5052 67.8096Z" fill="#47237F"/>
<path d="M85.1879 58.0156V70.0874H82.6203V59.42L77.9685 70.0874H73.2969V58.0156H75.8642V68.4741L80.4199 58.0156H85.1879Z" fill="#47237F"/>
<path d="M87.6992 70.0874V58.0156H90.363V62.7985H96.7524V58.0156H99.4166V70.0874H96.7524V65.2283H90.363V70.0874H87.6992Z" fill="#47237F"/>
<path d="M103.315 59.6265C104.512 58.412 105.94 57.8047 107.639 57.8047C109.338 57.8047 110.612 58.412 111.577 59.6265V58.0133H114.241V70.085H111.577V68.4716C110.612 69.6674 109.299 70.2748 107.639 70.2748C105.979 70.2748 104.512 69.6674 103.315 68.4337C102.118 67.2189 101.52 65.7575 101.52 64.0493C101.52 62.3411 102.118 60.8415 103.296 59.6265H103.315ZM104.01 64.0493C104.01 65.1123 104.376 66.0231 105.129 66.7634C105.882 67.5229 106.789 67.8834 107.871 67.8834C108.951 67.8834 109.859 67.5037 110.612 66.7447C111.364 65.9852 111.751 65.0744 111.751 64.0301C111.751 62.9863 111.364 62.0755 110.612 61.316C109.839 60.5567 108.932 60.1582 107.871 60.1582C106.809 60.1582 105.882 60.5379 105.129 61.297C104.376 62.0563 104.01 62.9673 104.01 64.0301V64.0493Z" fill="#47237F"/>
<path d="M116.808 58.0156H121.344L124.858 68.4928L128.371 58.0156H132.927V70.0874H130.34V59.8188L126.866 70.0874H122.831L119.395 59.8566V70.0874H116.77V58.0156H116.808Z" fill="#47237F"/>
<path d="M147.368 58.0156V70.0874H144.8V59.42L140.149 70.0874H135.477V58.0156H138.045V68.4741L142.601 58.0156H147.368Z" fill="#47237F"/>
<path d="M161.148 70.0874H157.77L152.538 64.8107V70.0874H149.875V58.0156H152.538V63.1782L157.751 58.0156H161.09L155.086 63.9756L161.148 70.0874Z" fill="#47237F"/>
<path d="M163.099 59.6265C164.296 58.412 165.724 57.8047 167.423 57.8047C169.122 57.8047 170.396 58.412 171.361 59.6265V58.0133H174.025V70.085H171.361V68.4716C170.396 69.6674 169.084 70.2748 167.423 70.2748C165.763 70.2748 164.296 69.6674 163.099 68.4337C161.902 67.2189 161.305 65.7575 161.305 64.0493C161.305 62.3411 161.902 60.8415 163.08 59.6265H163.099ZM163.794 64.0493C163.794 65.1123 164.161 66.0231 164.914 66.7634C165.667 67.5229 166.574 67.8834 167.655 67.8834C168.736 67.8834 169.643 67.5037 170.396 66.7447C171.148 65.9852 171.534 65.0744 171.534 64.0301C171.534 62.9863 171.148 62.0755 170.396 61.316C169.624 60.5567 168.717 60.1582 167.655 60.1582C166.594 60.1582 165.667 60.5379 164.914 61.297C164.161 62.0563 163.794 62.9673 163.794 64.0301V64.0493Z" fill="#47237F"/>
<path d="M53.1259 50.6108V53.0026C44.4971 53.0026 37.4708 46.3591 36.9688 38.0078H39.4395C39.8838 45.0496 45.8483 50.6108 53.1259 50.6108Z" fill="#47237F"/>
<path d="M63.878 25.2539L62.1601 26.9431C59.7472 24.8552 56.5813 23.6025 53.1065 23.6025C45.8292 23.6025 39.8838 29.1639 39.4395 36.2057H36.9688C37.4708 27.8542 44.4971 21.2109 53.1259 21.2109C57.257 21.2109 61.0404 22.7484 63.8972 25.2539H63.878Z" fill="#D5E4E5"/>
<path d="M69.2827 37.0992H66.8503C66.8503 33.6826 65.5765 30.5697 63.4531 28.1972L65.1708 26.5078C67.7385 29.317 69.2827 33.0372 69.2827 37.0992Z" fill="#1D00ED"/>
</svg>
