<svg width="214" height="95" viewBox="0 0 214 95" fill="none" xmlns="http://www.w3.org/2000/svg">
<g clip-path="url(#clip0_200_57973)">
<path d="M166.266 0H47.7343C21.3714 0 0 21.2665 0 47.5C0 73.7335 21.3714 95 47.7343 95H166.266C192.629 95 214 73.7335 214 47.5C214 21.2665 192.629 0 166.266 0Z" fill="white"/>
<path d="M151.517 61.5547L151.154 62.3398L150.662 63.4643H147.18L144.831 68.9818H142.652L145.002 63.4643H142.203L143.058 61.5547H151.517Z" fill="#38468F"/>
<path d="M148.013 66.7713C148.205 66.7713 148.355 66.7499 148.525 66.6859L149.017 65.6249H149.658L148.974 67.1107C148.568 67.3018 148.162 67.4288 147.692 67.4288C146.795 67.4288 146.325 66.7713 146.774 65.7524C147.244 64.7341 148.333 64.0547 149.23 64.0547C149.615 64.0547 149.914 64.1395 150.106 64.2885L149.786 64.9887C149.593 64.7976 149.316 64.7128 148.995 64.7128C148.376 64.7128 147.756 65.1584 147.479 65.7524C147.244 66.3678 147.458 66.7713 148.013 66.7713Z" fill="#38468F"/>
<path d="M151.216 65.6686C151.601 65.6686 151.878 65.4989 152.007 65.223C152.135 64.9257 151.985 64.7773 151.643 64.7773H151.344L150.939 65.69H151.216V65.6686ZM151.9 67.3664H151.045L150.703 66.2413H150.682L150.17 67.3664H149.465L150.939 64.1406H151.964C152.754 64.1406 153.053 64.5228 152.754 65.1803C152.583 65.5624 152.178 66.0081 151.494 66.1564L151.9 67.3664Z" fill="#38468F"/>
<path d="M155.49 65.7311C155.789 65.0735 155.49 64.6914 155.02 64.6914C154.528 64.6914 153.888 65.0735 153.589 65.7311C153.29 66.3891 153.589 66.7713 154.08 66.7713C154.55 66.7713 155.191 66.4105 155.49 65.7311ZM152.863 65.7311C153.311 64.7549 154.358 64.0547 155.298 64.0547C156.259 64.0547 156.643 64.7549 156.195 65.7311C155.746 66.7072 154.699 67.4074 153.76 67.4074C152.82 67.4288 152.414 66.7286 152.863 65.7311Z" fill="#38468F"/>
<path d="M156.537 66.0929L157.434 64.1406H158.139L157.242 66.0929C157.05 66.5386 157.156 66.7932 157.541 66.7932C157.947 66.7932 158.31 66.5386 158.502 66.0929L159.399 64.1406H160.104L159.207 66.0929C158.844 66.878 158.075 67.4299 157.221 67.4299C156.43 67.4299 156.174 66.878 156.537 66.0929Z" fill="#38468F"/>
<path d="M161.917 65.2865C162.066 64.9471 161.896 64.7773 161.533 64.7773H161.212L160.742 65.817H161.062C161.404 65.817 161.746 65.6259 161.917 65.2865ZM160.785 64.1406H161.746C162.643 64.1406 162.964 64.5863 162.643 65.2651C162.344 65.9232 161.618 66.4324 160.742 66.4324H160.443L160.037 67.345H159.332L160.785 64.1406Z" fill="#38468F"/>
<path d="M163.647 62.8682L163.925 62.2109H151.856L151.578 62.8682H163.647Z" fill="#38468F"/>
<path d="M161.086 68.9775L161.364 68.3203H145.813L145.535 68.9775H161.086Z" fill="#DA1F28"/>
<path d="M85.9368 55.0141C82.9032 55.0141 80.4253 52.5735 80.4253 49.4966C80.4253 46.4197 82.8823 43.9157 85.9368 43.9157C86.2569 43.9157 86.5777 43.9157 86.8979 43.9157V41.5815C86.62 41.5602 86.3213 41.5391 86.022 41.5391C84.5696 41.5391 83.2239 41.8998 81.9635 42.6001C80.7031 43.3215 79.742 44.2552 79.0587 45.4223C78.3749 46.5894 78.0547 47.9263 78.0547 49.433C78.0547 51.7672 78.8023 53.6772 80.2762 55.1625C81.7501 56.6478 83.6509 57.3907 85.9791 57.3907C86.2999 57.3907 86.5986 57.4115 86.8979 57.3907V54.9928C86.5986 55.0141 86.2569 55.0141 85.9368 55.0141Z" fill="#656565"/>
<path fill-rule="evenodd" clip-rule="evenodd" d="M169.416 51.0469C169.181 51.0469 168.988 51.2378 168.988 51.4713V51.8957C168.988 54.1448 170.825 55.9914 173.047 55.9914H173.474C173.709 55.9914 173.901 55.8003 173.901 55.5666V51.4713C173.901 51.2378 173.709 51.0469 173.474 51.0469H169.416Z" fill="#47237F"/>
<path fill-rule="evenodd" clip-rule="evenodd" d="M183.174 41.9887C183.152 41.9674 183.152 41.9887 183.174 41.9887C182.896 41.7128 182.533 41.543 182.127 41.5643H173.348C172.365 41.5643 171.511 41.9887 170.721 42.6253L169.012 43.9197L180.397 43.9409H180.418H180.44C180.846 43.9409 181.187 44.2805 181.187 44.6836V44.7049C181.187 44.7049 181.187 44.7049 181.187 44.7261L181.209 56.0365L182.511 54.3387C183.174 53.5537 183.58 52.7049 183.58 51.7288V43.0285C183.601 42.6253 183.43 42.2433 183.174 41.9887Z" fill="#B183BA"/>
<path fill-rule="evenodd" clip-rule="evenodd" d="M178.556 46.3383C178.45 46.2534 178.343 46.2109 178.108 46.2109L171.251 46.2322C170.482 46.2322 169.906 46.5717 169.243 47.081L167.406 48.4815L175.609 48.4603C175.843 48.4603 176.036 48.5664 176.186 48.7149C176.335 48.8423 176.442 49.0545 176.442 49.2879L176.421 57.4364L177.83 55.6117C178.321 54.9323 178.684 54.3596 178.684 53.6167L178.706 46.8264C178.706 46.5717 178.642 46.4656 178.556 46.3383Z" fill="#8B559D"/>
<path d="M89.5039 41.5391H99.6713V57.3907H97.2578V43.8945H91.9389V57.3907H89.5254L89.5039 41.5391Z" fill="#656565"/>
<path d="M119.239 43.8945H115.309V41.5391H125.605V43.9157H121.674V57.4329H119.239V43.8945Z" fill="#656565"/>
<path d="M127.871 41.5391H130.285V47.9263H135.796V41.5391H138.21V57.4329H135.796V50.3879H130.285V57.4329H127.871V41.5391Z" fill="#656565"/>
<path d="M140.686 41.5391H143.078V48.4568C143.078 50.2393 142.886 52.234 142.779 53.8891H142.864L144.274 50.5152L148.546 41.5391H151.109V57.4329H148.717V50.4727C148.717 48.6903 148.909 46.7804 149.016 45.104H148.931L147.521 48.4568L143.227 57.4329H140.664V41.5391H140.686Z" fill="#656565"/>
<path d="M153.738 41.5391H156.152V48.0112H159.463L164.12 57.4329H161.556L158.075 50.303H156.152V57.4329H153.738V41.5391ZM157.84 48.5629L159.912 44.3613C161.001 42.1757 161.877 41.5391 163.244 41.5391C163.564 41.5391 163.863 41.6239 163.992 41.6876V43.9157C163.799 43.9157 163.393 43.9157 163.265 43.9157C162.646 43.9157 162.261 44.4038 161.577 45.7619L159.912 49.0934L157.84 48.5629Z" fill="#656565"/>
<path d="M30.9336 41.5391H40.845V44.2552H37.3845V57.4329H34.4154V44.2552H30.9336V41.5391Z" fill="#47237F"/>
<path d="M76.0915 44.2552V41.5391H67.9102V57.4329H76.0915V54.6955H70.8793V50.8335H75.8351V48.1173H70.8793V44.2552H76.0915Z" fill="#47237F"/>
<path d="M55.8613 48.4568C55.8828 50.5364 55.7755 52.1279 55.5406 53.2314C55.3057 54.3134 54.772 54.8866 53.96 54.8866C53.8103 54.8866 53.6398 54.8652 53.4688 54.8231V57.3694C53.6612 57.3907 53.8533 57.4115 54.0243 57.4329C54.1949 57.4329 54.366 57.4542 54.558 57.4542C56.1601 57.4542 57.2494 56.7754 57.8479 55.2895C58.4459 53.8042 58.7447 51.555 58.7232 48.5629V44.1491H62.5259V57.4329H65.4951V41.5391H55.8828L55.8613 48.4568Z" fill="#47237F"/>
<path d="M43.0469 57.4329H51.228V54.6955H46.016V50.8335H50.9717V48.1173H46.016V44.2552H51.228V41.5391H43.0469V57.4329Z" fill="#47237F"/>
<path d="M110.718 41.5391L108.838 47.2685L107.812 50.6849H107.727L106.638 47.2685L104.587 41.5391H102.023L106.659 53.295L106.403 53.9318C106.103 54.632 105.612 54.9287 104.886 54.9287C104.416 54.9287 104.16 54.8652 103.946 54.759V57.348C104.245 57.4115 104.587 57.4756 105.014 57.4756C106.958 57.4756 108.047 56.16 108.816 53.9953L113.153 41.5815L110.718 41.5391Z" fill="#656565"/>
</g>
<defs>
<clipPath id="clip0_200_57973">
<rect width="214" height="95" fill="white"/>
</clipPath>
</defs>
</svg>
