<svg width="30" height="31" viewBox="0 0 30 31" fill="none" xmlns="http://www.w3.org/2000/svg">
<path fill-rule="evenodd" clip-rule="evenodd" d="M14.989 30.5139C23.2672 30.5139 29.978 23.8031 29.978 15.5249C29.978 7.2467 23.2672 0.535889 14.989 0.535889C6.71081 0.535889 0 7.2467 0 15.5249C0 23.8031 6.71081 30.5139 14.989 30.5139ZM19.2168 21.0618L21.4255 10.6457C21.6215 9.72758 21.0955 9.36818 20.4943 9.59362L7.51012 14.5958C6.62468 14.9422 6.63775 15.4388 7.35982 15.6642L10.6794 16.7032L18.3902 11.848C18.7529 11.6063 19.0829 11.7402 18.8117 11.982L12.5744 17.6181L12.3326 21.0455C12.679 21.0455 12.8293 20.8952 13.009 20.7155L14.6328 19.1537L17.9981 21.6336C18.6156 21.9799 19.0502 21.7969 19.2168 21.0618Z" fill="#75C7F9"/>
</svg>
