<svg width="16" height="24" viewBox="0 0 16 24" fill="none" xmlns="http://www.w3.org/2000/svg">
<path fill-rule="evenodd" clip-rule="evenodd" d="M3.61009 11.7322L15.5438 1.58345L14.4132 0.253906L0.916016 11.7322L14.4132 23.2105L15.5439 21.8809L3.61009 11.7322Z" fill="white"/>
</svg>
