<svg width="225" height="50" viewBox="0 0 225 50" fill="none" xmlns="http://www.w3.org/2000/svg">
<path d="M206.81 0H16.6667C7.46192 0 0 7.46192 0 16.6667V33.3327C0 42.5375 7.46192 49.9994 16.6667 49.9994H206.81C216.015 49.9994 223.477 42.5375 223.477 33.3327V16.6667C223.477 7.46192 216.015 0 206.81 0Z" fill="white"/>
<path fill-rule="evenodd" clip-rule="evenodd" d="M61.5609 16.369L60.2405 15.0488H62.3701L62.6469 15.3043L61.5609 16.369ZM63.0301 17.9023L61.7098 16.582L62.7746 15.5172L63.0301 15.7728V17.9023ZM59.8998 18.3495C60.5751 19.0052 61.3959 19.4918 62.2953 19.7694C63.1948 20.047 64.1471 20.1077 65.0744 19.9466L63.1792 18.0513V15.9218L63.8182 16.5607H63.9246L61.7951 14.4312V14.5376L62.4338 15.1765H60.3044L58.4092 13.2812C58.1786 14.2228 58.2115 15.2096 58.5046 16.1336C58.7976 17.0576 59.3392 17.8832 60.0701 18.5198L59.8998 18.3495ZM59.8359 19.3503L62.1144 22.3317H57.8555L59.8359 19.3503Z" fill="#4397D3"/>
<path d="M62.4512 22.3383H57.1914L59.5977 18.6117L62.4512 22.3383ZM58.1922 21.7846H61.3439L59.6404 19.6551L58.1922 21.7846ZM63.9845 20.2088C62.3916 20.183 60.8685 19.5509 59.7254 18.4413C58.9637 17.7704 58.4002 16.9036 58.096 15.9351C57.7918 14.9665 57.7589 13.9332 58.0006 12.9472L58.1283 12.5L60.2579 14.6295H61.6208L61.2587 14.2675L61.7272 13.7777L64.3252 16.3757L63.8354 16.8655L63.4733 16.5035V17.9089L65.6029 20.0384H65.1558C64.7943 20.0701 64.431 20.0701 64.0695 20.0384L63.9845 20.2088ZM58.3627 13.6499C58.2497 14.4764 58.3445 15.3179 58.6383 16.0986C58.932 16.8793 59.4154 17.5746 60.0449 18.1219C60.622 18.69 61.3139 19.1283 62.0741 19.4074C62.8343 19.6865 63.6454 19.8 64.4529 19.7403L62.8558 18.1432L61.6208 16.9081L60.1087 15.3961L58.3627 13.6499ZM62.0466 16.5674L62.7068 17.2275V15.7794L62.0466 16.5674ZM60.8966 15.4174L61.5568 16.0776L62.217 15.4174H60.8966Z" fill="#1D1D1B"/>
<path fill-rule="evenodd" clip-rule="evenodd" d="M70.9675 24.5524C70.2602 24.4756 69.5492 24.4399 68.8379 24.446C65.1327 24.446 62.8327 25.4468 62.8327 26.9587C62.8327 28.4708 64.366 29.4716 68.5185 29.4716C69.3079 29.4847 70.0973 29.4493 70.8823 29.3651V28.3003C70.3169 28.3683 69.7481 28.4039 69.1787 28.4068C67.8371 28.4068 66.0271 28.1299 66.0271 26.9587C66.0271 25.7874 67.2833 25.5108 69.4129 25.5108C69.6258 25.5108 70.2008 25.5108 70.8823 25.5108L70.9675 24.5524ZM62.1087 24.5524C61.4015 24.4756 60.6904 24.4399 59.9792 24.446C56.274 24.446 53.974 25.4468 53.974 26.9587C53.974 28.4708 55.5073 29.4716 59.6598 29.4716C60.4492 29.4847 61.2385 29.4493 62.0235 29.3651V28.3003C61.4581 28.3683 60.8894 28.4039 60.32 28.4068C58.9783 28.4068 57.1683 28.1299 57.1683 26.9587C57.1683 25.7874 58.4246 25.5108 60.5542 25.5108C60.7671 25.5108 61.3421 25.5108 62.0235 25.5108L62.1087 24.5524ZM35.2344 24.5524V29.3651H38.3435V25.6385H39.5998C40.4517 25.6385 41.7294 25.6385 41.7294 26.3839C41.7294 27.1291 40.0683 27.2568 38.8333 27.0866V28.3428C40.7537 28.8976 42.7212 29.2756 44.7106 29.4716V28.3003C43.7473 28.2431 42.7919 28.0933 41.8571 27.8531C43.1348 27.8531 44.9235 27.3633 44.9235 26.2772C44.9235 24.5949 41.2183 24.5524 39.5148 24.5524H35.2344ZM53.4417 24.5524H49.1827C46.691 24.5524 45.7754 25.0847 45.7754 25.7024C45.7754 26.3199 47.0319 26.8097 48.7567 27.406C49.5021 27.6614 49.9706 27.7893 49.9706 28.0235C49.9706 28.2578 49.8215 28.3003 49.0335 28.3003H45.6477V29.3651H49.779C50.5242 29.3651 53.5694 29.3651 53.5694 28.1512C53.5694 27.342 52.1427 26.9801 50.7798 26.5541C49.8427 26.2772 49.3744 26.1283 49.3744 25.8941C49.3744 25.6597 49.9492 25.6385 50.29 25.6385H53.4417V24.5524Z" fill="#1D1D1B"/>
<path fill-rule="evenodd" clip-rule="evenodd" d="M77.4482 26.9774C77.4482 32.5993 66.673 37.1989 53.4488 37.1989C40.2244 37.1989 29.4492 32.5993 29.4492 26.9774C29.4492 21.3553 40.2244 16.7344 53.4488 16.7344V21.8666C40.2244 21.8666 29.5132 24.1664 29.5132 26.9774C29.5132 29.7882 40.1607 32.0668 53.4488 32.0668C66.7367 32.0668 77.4482 29.767 77.4482 26.9774Z" fill="#4397D3"/>
<path d="M53.4442 37.4792C40.0496 37.4792 29.168 32.7729 29.168 26.9806C29.168 21.1884 40.0496 16.4609 53.4442 16.4609H53.7211V22.1679H53.4442C39.2832 22.1679 29.7642 24.6596 29.7642 27.0019C29.7642 29.3444 39.2832 31.8146 53.4442 31.8146C67.6055 31.8146 77.1669 29.3231 77.1669 27.0019H77.7207C77.7207 32.7942 66.8176 37.5004 53.4442 37.5004V37.4792ZM30.0198 28.3223C31.5742 33.1988 41.5405 36.9467 53.4442 36.9467C65.3482 36.9467 75.293 33.2415 76.8688 28.4288C73.9728 30.9415 63.5169 32.3896 53.4442 32.3896C43.3717 32.3896 32.6603 30.899 30.0198 28.3436V28.3223ZM53.274 17.0572C41.3913 17.0572 31.5742 20.8477 30.0198 25.5752C32.7455 23.0411 43.1163 21.5504 53.274 21.5292V17.0572Z" fill="#1D1D1B"/>
<path fill-rule="evenodd" clip-rule="evenodd" d="M87.9408 20.3423H86.5352V30.3296H87.9408V25.6234H89.2822C89.7193 25.6056 90.1487 25.7413 90.4962 26.0067C90.7729 26.3075 90.9831 26.6629 91.1137 27.0502L92.4979 30.3296H94.0524L92.4552 26.5392C92.3383 26.1727 92.1304 25.8421 91.8512 25.5777C91.5718 25.3134 91.2304 25.124 90.8581 25.0271C91.1731 24.9248 91.4552 24.7409 91.676 24.494C91.8966 24.2471 92.0481 23.9461 92.1145 23.6217L92.4766 22.5569C92.5831 22.2588 92.6895 21.7265 92.9877 21.5136C93.1054 21.429 93.2472 21.3842 93.3922 21.3856C93.5252 21.354 93.6639 21.354 93.7968 21.3856L93.9672 20.2784C93.7091 20.2147 93.445 20.179 93.1793 20.1719C92.9027 20.1721 92.6285 20.2226 92.3702 20.3209C92.1181 20.4614 91.901 20.6568 91.7352 20.8927C91.5691 21.1288 91.4587 21.3992 91.4118 21.6838L90.9008 23.2384C90.8383 23.6031 90.6422 23.9317 90.351 24.1598C90.0597 24.3881 89.6939 24.5 89.3249 24.4736H87.9408V20.3423ZM97.0549 23.2596C96.6374 23.2461 96.2216 23.3184 95.8333 23.4721C95.4449 23.6261 95.0924 23.8581 94.7977 24.154C94.2443 24.9473 93.9477 25.8913 93.9477 26.8586C93.9477 27.8259 94.2443 28.7696 94.7977 29.5629C95.3985 30.1496 96.2047 30.4779 97.0443 30.4779C97.8839 30.4779 98.6904 30.1496 99.291 29.5629C99.8443 28.7696 100.141 27.8259 100.141 26.8586C100.141 25.8913 99.8443 24.9473 99.291 24.154C98.7274 23.5859 97.9616 23.2642 97.1614 23.2596H97.0549ZM98.8437 27.1779C98.9327 27.8561 98.7574 28.5423 98.3539 29.0944C98.0247 29.3938 97.5958 29.5596 97.1508 29.5596C96.7058 29.5596 96.2768 29.3938 95.9477 29.0944C95.5443 28.5423 95.3689 27.8561 95.4579 27.1779V26.5392C95.3679 25.8677 95.5435 25.1875 95.9477 24.6438C96.1047 24.4821 96.2939 24.355 96.5029 24.2709C96.7118 24.1865 96.9362 24.1467 97.1614 24.154C97.3833 24.1484 97.6039 24.189 97.8093 24.2734C98.0147 24.3575 98.2002 24.4838 98.3539 24.6438C98.7581 25.1875 98.9339 25.8677 98.8437 26.5392V27.1779ZM106.127 28.9667C105.868 29.1044 105.597 29.2184 105.317 29.3075C104.965 29.4159 104.6 29.4731 104.231 29.4777C103.727 29.4838 103.236 29.3102 102.847 28.9879C102.634 28.759 102.473 28.4854 102.378 28.1873C102.282 27.8892 102.253 27.5736 102.293 27.2631V26.3475C102.238 25.9965 102.272 25.6373 102.391 25.3025C102.51 24.9677 102.711 24.6681 102.975 24.4309C103.274 24.2417 103.622 24.1454 103.976 24.154C104.162 24.1386 104.35 24.1629 104.526 24.2252C104.702 24.2877 104.863 24.3869 104.998 24.5161C105.124 24.6636 105.213 24.839 105.258 25.0279C105.302 25.2169 105.301 25.4138 105.253 25.6021L106.403 25.4956C106.516 25.1429 106.501 24.7619 106.361 24.4192C106.221 24.0767 105.965 23.7942 105.637 23.6217C105.151 23.3888 104.621 23.2652 104.082 23.2596C103.372 23.2404 102.673 23.4413 102.081 23.8346C101.664 24.2225 101.342 24.7004 101.139 25.2319C100.936 25.7636 100.858 26.3344 100.909 26.9011C100.882 27.4292 100.965 27.9573 101.152 28.4521C101.339 28.9469 101.626 29.3975 101.995 29.7759C102.591 30.2706 103.352 30.5217 104.125 30.4788C104.679 30.4854 105.228 30.3842 105.743 30.1806C106.032 30.0715 106.31 29.9361 106.574 29.7759L106.127 28.9667ZM107.362 30.3296H108.49V25.0698L110.492 28.6898H110.854L112.856 25.0698V30.3296H114.112V23.3875H112.686L110.854 26.9438L108.725 23.3875H107.213L107.362 30.3296ZM121.48 23.3875H120.139L116.689 28.7325V23.3875H115.326V30.3296H116.668L120.117 24.9846V30.3296H121.374L121.48 23.3875ZM127.635 23.3875H126.378V26.6029C125.964 26.7629 125.523 26.8425 125.079 26.8373C124.68 26.8686 124.282 26.7634 123.951 26.5392C123.851 26.4465 123.771 26.3344 123.716 26.21C123.661 26.0854 123.632 25.9511 123.631 25.815V23.4513H122.375V25.5809C122.341 25.8817 122.377 26.1863 122.48 26.4706C122.584 26.7552 122.752 27.0119 122.971 27.2206C123.506 27.5938 124.152 27.774 124.802 27.7317C125.335 27.7396 125.867 27.6679 126.378 27.5188V30.3296H127.635V23.3875ZM130.02 27.1567H134.279V26.8373C134.346 26.3494 134.314 25.8531 134.186 25.3775C134.058 24.9021 133.836 24.4571 133.533 24.069C132.983 23.5252 132.241 23.2204 131.468 23.2204C130.694 23.2204 129.952 23.5252 129.402 24.069C128.82 24.8048 128.532 25.7306 128.593 26.6669C128.534 27.6456 128.829 28.6129 129.423 29.3925C129.736 29.7198 130.113 29.9779 130.531 30.1502C130.949 30.3227 131.399 30.4054 131.851 30.3936C132.411 30.3944 132.967 30.2934 133.491 30.0954C133.78 29.9863 134.057 29.8509 134.321 29.6909L133.938 28.8815C133.679 29.0192 133.408 29.1334 133.129 29.2223C132.777 29.3325 132.411 29.3898 132.043 29.3925C131.463 29.4104 130.899 29.2046 130.467 28.8177C130.129 28.3727 129.962 27.8209 129.998 27.2631L130.02 27.1567ZM130.02 26.2411V26.0919C129.981 25.5636 130.14 25.0396 130.467 24.6225C130.596 24.4723 130.756 24.3525 130.936 24.2715C131.117 24.1904 131.313 24.1504 131.51 24.154C131.871 24.1444 132.222 24.274 132.49 24.5161C132.672 24.7065 132.809 24.9356 132.89 25.1865C132.971 25.4371 132.995 25.7031 132.958 25.9642V26.2411H130.02ZM140.135 28.9667C139.876 29.1044 139.605 29.2184 139.326 29.3075C138.974 29.4159 138.608 29.4731 138.24 29.4777C137.735 29.4838 137.244 29.3102 136.855 28.9879C136.642 28.759 136.482 28.4854 136.386 28.1873C136.29 27.8892 136.261 27.5736 136.302 27.2631V26.3475C136.246 25.9965 136.28 25.6373 136.399 25.3025C136.518 24.9677 136.719 24.6681 136.983 24.4309C137.282 24.2417 137.63 24.1454 137.984 24.154C138.17 24.1386 138.358 24.1629 138.534 24.2252C138.71 24.2877 138.871 24.3869 139.006 24.5161C139.132 24.6636 139.222 24.839 139.266 25.0279C139.311 25.2169 139.309 25.4138 139.262 25.6021L140.412 25.4956C140.524 25.1429 140.509 24.7619 140.369 24.4192C140.229 24.0767 139.973 23.7942 139.645 23.6217C139.16 23.3888 138.629 23.2652 138.091 23.2596C137.38 23.2404 136.681 23.4413 136.089 23.8346C135.672 24.2225 135.35 24.7004 135.147 25.2319C134.944 25.7636 134.866 26.3344 134.917 26.9011C134.89 27.4292 134.973 27.9573 135.16 28.4521C135.347 28.9469 135.634 29.3975 136.003 29.7759C136.599 30.2706 137.36 30.5217 138.133 30.4788C138.687 30.4854 139.237 30.3842 139.751 30.1806C140.04 30.0715 140.318 29.9361 140.582 29.7759L140.135 28.9667ZM142.605 23.3875H141.37V30.3296H142.605V27.1354H143.627C143.892 27.1288 144.152 27.2031 144.372 27.3484C144.606 27.5606 144.775 27.8334 144.862 28.1363L145.842 30.2656H147.056L145.927 27.7102C145.801 27.4342 145.628 27.1819 145.416 26.965C145.21 26.7554 144.94 26.6206 144.649 26.5817C144.888 26.5284 145.104 26.4019 145.267 26.2196C145.483 26.0009 145.637 25.7292 145.714 25.4317L145.927 24.7717C145.979 24.6056 146.066 24.4531 146.183 24.3244C146.271 24.2877 146.371 24.2877 146.46 24.3244C146.585 24.2911 146.717 24.2911 146.843 24.3244L147.013 23.3875C146.762 23.2884 146.495 23.2377 146.225 23.2384C146.049 23.2059 145.869 23.2059 145.693 23.2384C145.373 23.3661 145.118 23.5792 144.862 24.3456L144.586 25.1336C144.525 25.3817 144.4 25.6094 144.223 25.7938C143.987 25.9767 143.69 26.0606 143.393 26.0279H142.413L142.605 23.3875ZM151.911 30.3296H153.04V25.815C153.092 25.4727 153.071 25.1234 152.979 24.7896C152.888 24.4556 152.727 24.1448 152.507 23.8773C151.898 23.4127 151.142 23.1856 150.378 23.2384C149.641 23.2004 148.907 23.3546 148.248 23.6856C148.01 23.8329 147.827 24.0544 147.727 24.3161C147.627 24.5777 147.615 24.865 147.695 25.1336H148.845C148.823 24.9731 148.847 24.8096 148.915 24.6625C148.983 24.5154 149.092 24.3909 149.228 24.3031C149.544 24.1411 149.895 24.0604 150.25 24.069C150.645 24.0469 151.035 24.1596 151.357 24.3884C151.469 24.5021 151.554 24.6398 151.606 24.7909C151.657 24.9421 151.674 25.1027 151.655 25.2615V26.1559H150.591C149.717 26.0698 148.839 26.2798 148.099 26.7521C147.857 26.9404 147.664 27.1834 147.534 27.4611C147.405 27.7386 147.343 28.0429 147.354 28.3492C147.355 28.6309 147.412 28.9096 147.522 29.1692C147.631 29.4288 147.791 29.664 147.993 29.8611C148.459 30.2419 149.053 30.4321 149.654 30.3936C150.106 30.4161 150.556 30.3129 150.953 30.0954C151.268 29.9363 151.533 29.6931 151.719 29.3925L151.911 30.3296ZM151.783 28.5834C151.628 28.8404 151.417 29.0588 151.166 29.2223C150.866 29.4284 150.507 29.5327 150.143 29.5204C149.797 29.5511 149.453 29.444 149.185 29.2223C149.062 29.1231 148.965 28.9961 148.902 28.8513C148.839 28.7067 148.812 28.5492 148.823 28.3917C148.813 28.2169 148.842 28.0419 148.908 27.8798C148.975 27.7175 149.077 27.5723 149.206 27.4548C149.63 27.1634 150.144 27.0348 150.655 27.0927H151.783V28.5834ZM159.577 23.3875H156.234C155.729 23.3861 155.231 23.5104 154.786 23.7494C154.537 23.9102 154.332 24.1309 154.191 24.3915C154.049 24.6519 153.976 24.9438 153.977 25.24C153.98 25.6779 154.138 26.1004 154.424 26.4325C154.724 26.7467 155.122 26.9494 155.552 27.0075C155.378 27.0875 155.214 27.1875 155.063 27.3056C154.856 27.4723 154.701 27.6938 154.615 27.9446L153.487 30.2871H154.913L155.787 28.3492C155.908 28.0529 156.09 27.7848 156.319 27.5613C156.552 27.4075 156.828 27.3327 157.107 27.3484H158.214V30.2871H159.471L159.577 23.3875ZM158.321 24.3884V26.39H156.809C156 26.39 155.403 26.0919 155.403 25.4104C155.39 25.2559 155.417 25.1006 155.48 24.9592C155.543 24.8175 155.641 24.6944 155.765 24.6013C156.054 24.43 156.39 24.3554 156.724 24.3884H158.321ZM168.351 28.9667C168.101 29.1086 167.837 29.2227 167.563 29.3075C167.211 29.4159 166.845 29.4731 166.477 29.4777C165.965 29.489 165.466 29.315 165.071 28.9879C164.862 28.7571 164.705 28.4829 164.613 28.1848C164.521 27.8867 164.496 27.5721 164.539 27.2631V26.3475C164.481 25.9984 164.511 25.6402 164.626 25.3056C164.742 24.9709 164.938 24.6702 165.199 24.4309C165.5 24.245 165.847 24.149 166.2 24.154C166.389 24.1396 166.58 24.1642 166.759 24.2265C166.939 24.2888 167.104 24.3873 167.243 24.5161C167.37 24.6636 167.459 24.839 167.503 25.0279C167.548 25.2169 167.546 25.4138 167.499 25.6021L168.649 25.4956C168.762 25.1429 168.746 24.7619 168.606 24.4192C168.466 24.0767 168.21 23.7942 167.882 23.6217C167.397 23.3888 166.866 23.2652 166.328 23.2596C165.617 23.2377 164.917 23.4388 164.326 23.8346C163.907 24.2215 163.582 24.6986 163.375 25.23C163.168 25.7615 163.086 26.3329 163.133 26.9011C163.106 27.4311 163.191 27.9609 163.382 28.4561C163.573 28.9513 163.865 29.4011 164.241 29.7759C164.836 30.2706 165.597 30.5217 166.37 30.4788C166.931 30.4884 167.488 30.3869 168.01 30.1806C168.299 30.0715 168.577 29.9361 168.841 29.7759L168.351 28.9667ZM169.586 30.3296H172.61C173.272 30.3602 173.923 30.1484 174.441 29.7334C174.637 29.5559 174.794 29.339 174.9 29.0967C175.007 28.8546 175.061 28.5925 175.059 28.3279C175.062 27.9256 174.927 27.5344 174.675 27.2206C174.423 26.9642 174.107 26.7802 173.76 26.6881C173.915 26.6515 174.061 26.5836 174.19 26.4884C174.318 26.3931 174.425 26.2727 174.505 26.1344C174.709 25.8404 174.821 25.4917 174.824 25.1336C174.827 24.9102 174.783 24.6886 174.695 24.4831C174.607 24.2777 174.477 24.0931 174.313 23.9411C173.837 23.5802 173.249 23.3992 172.652 23.43H169.458L169.586 30.3296ZM170.842 24.3031H172.525C172.813 24.2906 173.097 24.3729 173.334 24.5373C173.456 24.6225 173.553 24.7379 173.617 24.8725C173.68 25.0069 173.708 25.1556 173.696 25.304C173.708 25.4481 173.686 25.5931 173.63 25.7267C173.575 25.8602 173.488 25.9781 173.376 26.0706C173.104 26.2644 172.772 26.355 172.439 26.3261H170.842V24.3031ZM170.842 27.2206H172.61C172.924 27.2111 173.232 27.3088 173.483 27.4973C173.607 27.5998 173.705 27.7306 173.768 27.879C173.831 28.0271 173.857 28.1886 173.845 28.3492C173.845 28.4967 173.814 28.6427 173.756 28.7781C173.697 28.9138 173.611 29.0359 173.504 29.1371C173.222 29.3294 172.887 29.4263 172.546 29.414H170.821L170.842 27.2206ZM181.49 23.3875H178.253C177.754 23.3831 177.263 23.5079 176.826 23.7494C176.577 23.9102 176.372 24.1309 176.231 24.3915C176.09 24.6519 176.016 24.9438 176.017 25.24C176.015 25.6752 176.165 26.0975 176.443 26.4325C176.743 26.7467 177.141 26.9494 177.571 27.0075C177.397 27.0875 177.233 27.1875 177.082 27.3056C176.882 27.4784 176.728 27.6979 176.635 27.9446L175.527 30.2871H176.869L177.742 28.3492C177.851 28.0517 178.026 27.7825 178.253 27.5613C178.482 27.3981 178.761 27.3225 179.041 27.3484H180.148V30.2871H181.405L181.49 23.3875ZM180.233 24.3884V26.39H178.721C177.912 26.39 177.316 26.0919 177.316 25.4104C177.307 25.2565 177.335 25.1023 177.398 24.9615C177.461 24.8206 177.557 24.6971 177.678 24.6013C177.967 24.43 178.302 24.3554 178.636 24.3884H180.233ZM184.045 27.2844H184.918C185.296 27.2523 185.674 27.3338 186.004 27.5188C186.13 27.6013 186.232 27.7156 186.299 27.8502C186.367 27.9848 186.397 28.135 186.388 28.2852C186.391 28.4417 186.36 28.5967 186.297 28.74C186.235 28.8834 186.142 29.0117 186.026 29.1159C185.666 29.3721 185.231 29.4996 184.791 29.4777C184.334 29.4654 183.882 29.3865 183.449 29.2436C183.198 29.1523 182.955 29.0381 182.725 28.9029L182.278 29.7973C182.548 29.9669 182.843 30.0961 183.151 30.1806C183.69 30.3786 184.259 30.4796 184.833 30.4788C185.651 30.5379 186.46 30.2786 187.09 29.7546C187.292 29.5794 187.455 29.3638 187.569 29.1217C187.683 28.8796 187.745 28.6165 187.751 28.3492C187.761 27.9715 187.636 27.6023 187.398 27.3092C187.159 27.0161 186.823 26.8184 186.451 26.7521C186.764 26.6173 187.028 26.3898 187.207 26.1004C187.386 25.8109 187.471 25.4734 187.452 25.1336C187.455 24.8534 187.386 24.5771 187.252 24.3311C187.118 24.085 186.923 23.8773 186.686 23.7281C186.143 23.4163 185.522 23.2684 184.897 23.3023C184.253 23.2854 183.616 23.4319 183.044 23.7281C182.817 23.8744 182.644 24.0909 182.552 24.3448C182.46 24.5986 182.453 24.8756 182.533 25.1336H183.619C183.593 24.9759 183.616 24.8138 183.685 24.6692C183.753 24.5248 183.864 24.4044 184.003 24.3244C184.257 24.1854 184.544 24.1192 184.833 24.1327C185.159 24.1071 185.483 24.1977 185.749 24.3884C185.878 24.4973 185.98 24.6348 186.046 24.7902C186.113 24.9454 186.142 25.114 186.132 25.2827C186.134 25.5069 186.059 25.7248 185.919 25.9002C185.76 26.0471 185.571 26.159 185.366 26.2288C185.16 26.2984 184.943 26.3244 184.727 26.3048H184.045V27.2844ZM189.944 25.9429V23.3875H188.666V30.3296H191.626C192.351 30.3834 193.068 30.1544 193.628 29.6909C193.842 29.4923 194.013 29.2517 194.13 28.9844C194.247 28.7169 194.308 28.4281 194.309 28.1363C194.309 27.839 194.246 27.5452 194.125 27.274C194.004 27.0025 193.827 26.7596 193.607 26.5604C192.983 26.1273 192.235 25.9104 191.477 25.9429H189.944ZM189.944 26.9438H191.669C192.021 26.9142 192.372 27.0209 192.648 27.2419C192.772 27.354 192.869 27.4925 192.932 27.6475C192.995 27.8023 193.021 27.9694 193.01 28.1363C193.024 28.4479 192.917 28.7529 192.712 28.9879C192.578 29.1106 192.42 29.2044 192.247 29.2629C192.075 29.3215 191.893 29.344 191.711 29.3288H189.944V26.9438Z" fill="#1D1D1B"/>
</svg>
