<svg width="226" height="51" viewBox="0 0 226 51" fill="none" xmlns="http://www.w3.org/2000/svg">
<g clip-path="url(#clip0_1_3122)">
<path d="M207.56 0.524902H17.4167C8.21192 0.524902 0.75 7.98682 0.75 17.1916V33.8576C0.75 43.0624 8.21192 50.5243 17.4167 50.5243H207.56C216.765 50.5243 224.227 43.0624 224.227 33.8576V17.1916C224.227 7.98682 216.765 0.524902 207.56 0.524902Z" fill="white"/>
<path fill-rule="evenodd" clip-rule="evenodd" d="M62.3089 16.8939L60.9885 15.5737H63.1181L63.395 15.8292L62.3089 16.8939ZM63.7781 18.4272L62.4579 17.1069L63.5227 16.0421L63.7781 16.2977V18.4272ZM60.6479 18.8744C61.3231 19.5301 62.1439 20.0167 63.0433 20.2943C63.9429 20.5719 64.8952 20.6326 65.8225 20.4715L63.9273 18.5762V16.4467L64.5662 17.0856H64.6727L62.5431 14.9561V15.0625L63.1819 15.7014H61.0525L59.1573 13.8062C58.9266 14.7477 58.9596 15.7345 59.2527 16.6585C59.5456 17.5825 60.0873 18.4081 60.8181 19.0447L60.6479 18.8744ZM60.5839 19.8752L62.8625 22.8566H58.6035L60.5839 19.8752Z" fill="#4397D3"/>
<path d="M63.1992 22.8632H57.9395L60.3457 19.1366L63.1992 22.8632ZM58.9403 22.3095H62.092L60.3884 20.18L58.9403 22.3095ZM64.7326 20.7337C63.1397 20.7079 61.6165 20.0758 60.4734 18.9662C59.7117 18.2953 59.1482 17.4285 58.844 16.46C58.5399 15.4914 58.507 14.4581 58.7486 13.4721L58.8763 13.0249L61.0059 15.1544H62.3688L62.0067 14.7924L62.4753 14.3026L65.0732 16.9006L64.5834 17.3904L64.2213 17.0284V18.4338L66.3509 20.5633H65.9038C65.5424 20.595 65.179 20.595 64.8176 20.5633L64.7326 20.7337ZM59.1107 14.1748C58.9978 15.0013 59.0926 15.8428 59.3863 16.6235C59.6801 17.4042 60.1634 18.0995 60.793 18.6468C61.3701 19.2149 62.062 19.6532 62.8222 19.9323C63.5824 20.2114 64.3934 20.3249 65.2009 20.2652L63.6038 18.6681L62.3688 17.433L60.8567 15.921L59.1107 14.1748ZM62.7947 17.0923L63.4549 17.7524V16.3043L62.7947 17.0923ZM61.6447 15.9423L62.3049 16.6025L62.9651 15.9423H61.6447Z" fill="#1D1D1B"/>
<path fill-rule="evenodd" clip-rule="evenodd" d="M71.7195 25.0786C71.0122 25.0017 70.3011 24.9661 69.5899 24.9721C65.8847 24.9721 63.5847 25.9729 63.5847 27.4848C63.5847 28.9969 65.118 29.9977 69.2705 29.9977C70.0599 30.0108 70.8492 29.9754 71.6342 29.8913V28.8265C71.0688 28.8944 70.5001 28.93 69.9307 28.9329C68.589 28.9329 66.779 28.656 66.779 27.4848C66.779 26.3135 68.0353 26.0369 70.1649 26.0369C70.3778 26.0369 70.9528 26.0369 71.6342 26.0369L71.7195 25.0786ZM62.8607 25.0786C62.1534 25.0017 61.4424 24.9661 60.7311 24.9721C57.0259 24.9721 54.7259 25.9729 54.7259 27.4848C54.7259 28.9969 56.2592 29.9977 60.4117 29.9977C61.2011 30.0108 61.9905 29.9754 62.7755 29.8913V28.8265C62.2101 28.8944 61.6413 28.93 61.072 28.9329C59.7303 28.9329 57.9203 28.656 57.9203 27.4848C57.9203 26.3135 59.1765 26.0369 61.3061 26.0369C61.519 26.0369 62.094 26.0369 62.7755 26.0369L62.8607 25.0786ZM35.9863 25.0786V29.8913H39.0955V26.1646H40.3517C41.2036 26.1646 42.4813 26.1646 42.4813 26.91C42.4813 27.6552 40.8203 27.7829 39.5853 27.6127V28.869C41.5057 29.4238 43.4732 29.8017 45.4626 29.9977V28.8265C44.4992 28.7692 43.5438 28.6194 42.609 28.3792C43.8867 28.3792 45.6755 27.8894 45.6755 26.8033C45.6755 25.1211 41.9703 25.0786 40.2667 25.0786H35.9863ZM54.1936 25.0786H49.9347C47.443 25.0786 46.5274 25.6108 46.5274 26.2286C46.5274 26.8461 47.7838 27.3358 49.5086 27.9321C50.254 28.1875 50.7226 28.3154 50.7226 28.5496C50.7226 28.784 50.5734 28.8265 49.7855 28.8265H46.3997V29.8913H50.5309C51.2761 29.8913 54.3213 29.8913 54.3213 28.6773C54.3213 27.8681 52.8947 27.5063 51.5317 27.0802C50.5947 26.8033 50.1263 26.6544 50.1263 26.4202C50.1263 26.1858 50.7011 26.1646 51.042 26.1646H54.1936V25.0786Z" fill="#1D1D1B"/>
<path fill-rule="evenodd" clip-rule="evenodd" d="M78.1962 27.4996C78.1962 33.1215 67.421 37.7211 54.1969 37.7211C40.9725 37.7211 30.1973 33.1215 30.1973 27.4996C30.1973 21.8775 40.9725 17.2566 54.1969 17.2566V22.3888C40.9725 22.3888 30.2612 24.6886 30.2612 27.4996C30.2612 30.3104 40.9087 32.589 54.1969 32.589C67.4848 32.589 78.1962 30.2892 78.1962 27.4996Z" fill="#4397D3"/>
<path d="M54.1923 38.0063C40.7977 38.0063 29.916 33.3 29.916 27.5077C29.916 21.7155 40.7977 16.988 54.1923 16.988H54.4691V22.695H54.1923C40.0312 22.695 30.5123 25.1867 30.5123 27.529C30.5123 29.8715 40.0312 32.3417 54.1923 32.3417C68.3535 32.3417 77.915 29.8502 77.915 27.529H78.4687C78.4687 33.3213 67.5656 38.0275 54.1923 38.0275V38.0063ZM30.7679 28.8494C32.3223 33.7259 42.2885 37.4738 54.1923 37.4738C66.0962 37.4738 76.041 33.7686 77.6168 28.9559C74.7208 31.4686 64.265 32.9167 54.1923 32.9167C44.1198 32.9167 33.4083 31.4261 30.7679 28.8707V28.8494ZM54.0221 17.5843C42.1393 17.5843 32.3223 21.3748 30.7679 26.1023C33.4935 23.5682 43.8643 22.0775 54.0221 22.0563V17.5843Z" fill="#1D1D1B"/>
<path fill-rule="evenodd" clip-rule="evenodd" d="M88.6927 20.8694H87.2871V30.8567H88.6927V26.1505H90.0342C90.4713 26.1327 90.9006 26.2684 91.2481 26.5338C91.5248 26.8346 91.735 27.19 91.8657 27.5773L93.2498 30.8567H94.8044L93.2071 27.0663C93.0902 26.6998 92.8823 26.3692 92.6032 26.1048C92.3238 25.8405 91.9823 25.6511 91.61 25.5542C91.925 25.4519 92.2071 25.268 92.4279 25.0211C92.6486 24.7742 92.8 24.4732 92.8665 24.1488L93.2286 23.084C93.335 22.7859 93.4415 22.2536 93.7396 22.0407C93.8573 21.9561 93.9992 21.9113 94.1442 21.9127C94.2771 21.8811 94.4159 21.8811 94.5488 21.9127L94.7192 20.8055C94.4611 20.7418 94.1969 20.7061 93.9313 20.699C93.6546 20.6992 93.3804 20.7497 93.1221 20.848C92.87 20.9885 92.6529 21.1839 92.4871 21.4198C92.3211 21.6559 92.2107 21.9263 92.1638 22.2109L91.6527 23.7655C91.5902 24.1302 91.3942 24.4588 91.1029 24.6869C90.8117 24.9152 90.4459 25.0271 90.0769 25.0007H88.6927V20.8694ZM97.8069 23.7867C97.3894 23.7732 96.9736 23.8455 96.5852 23.9992C96.1969 24.1532 95.8444 24.3852 95.5496 24.6811C94.9963 25.4744 94.6996 26.4184 94.6996 27.3857C94.6996 28.353 94.9963 29.2967 95.5496 30.09C96.1504 30.6767 96.9567 31.005 97.7963 31.005C98.6359 31.005 99.4423 30.6767 100.043 30.09C100.596 29.2967 100.893 28.353 100.893 27.3857C100.893 26.4184 100.596 25.4744 100.043 24.6811C99.4794 24.113 98.7136 23.7913 97.9134 23.7867H97.8069ZM99.5957 27.705C99.6846 28.3832 99.5094 29.0694 99.1059 29.6215C98.7767 29.9209 98.3477 30.0867 97.9027 30.0867C97.4577 30.0867 97.0288 29.9209 96.6996 29.6215C96.2963 29.0694 96.1209 28.3832 96.2098 27.705V27.0663C96.1198 26.3948 96.2954 25.7146 96.6996 25.1709C96.8567 25.0092 97.0459 24.8821 97.2548 24.798C97.4638 24.7136 97.6882 24.6738 97.9134 24.6811C98.1352 24.6755 98.3559 24.7161 98.5613 24.8005C98.7667 24.8846 98.9521 25.0109 99.1059 25.1709C99.51 25.7146 99.6859 26.3948 99.5957 27.0663V27.705ZM106.879 29.4938C106.62 29.6315 106.349 29.7455 106.069 29.8346C105.717 29.943 105.352 30.0002 104.983 30.0048C104.479 30.0109 103.988 29.8373 103.599 29.515C103.386 29.2861 103.225 29.0125 103.13 28.7144C103.034 28.4163 103.005 28.1007 103.045 27.7902V26.8746C102.99 26.5236 103.024 26.1644 103.143 25.8296C103.262 25.4948 103.463 25.1952 103.727 24.958C104.026 24.7688 104.374 24.6725 104.728 24.6811C104.914 24.6657 105.101 24.69 105.278 24.7523C105.454 24.8148 105.615 24.914 105.75 25.0432C105.876 25.1907 105.965 25.3661 106.01 25.555C106.054 25.744 106.053 25.9409 106.005 26.1292L107.155 26.0227C107.268 25.67 107.253 25.289 107.113 24.9463C106.973 24.6038 106.716 24.3213 106.389 24.1488C105.903 23.9159 105.373 23.7923 104.834 23.7867C104.124 23.7675 103.425 23.9684 102.833 24.3617C102.416 24.7496 102.094 25.2275 101.891 25.759C101.688 26.2907 101.61 26.8615 101.661 27.4282C101.634 27.9563 101.717 28.4844 101.904 28.9792C102.091 29.474 102.378 29.9246 102.747 30.303C103.343 30.7977 104.104 31.0488 104.877 31.0059C105.431 31.0125 105.98 30.9113 106.495 30.7077C106.784 30.5986 107.062 30.4632 107.326 30.303L106.879 29.4938ZM108.114 30.8567H109.242V25.5969L111.244 29.2169H111.606L113.608 25.5969V30.8567H114.864V23.9146H113.438L111.606 27.4709L109.477 23.9146H107.965L108.114 30.8567ZM122.232 23.9146H120.891L117.441 29.2596V23.9146H116.078V30.8567H117.42L120.869 25.5117V30.8567H122.126L122.232 23.9146ZM128.386 23.9146H127.13V27.13C126.716 27.29 126.275 27.3696 125.831 27.3644C125.432 27.3957 125.034 27.2905 124.703 27.0663C124.603 26.9736 124.523 26.8615 124.468 26.7371C124.413 26.6125 124.384 26.4782 124.383 26.3421V23.9784H123.127V26.108C123.093 26.4088 123.129 26.7134 123.232 26.9977C123.336 27.2823 123.504 27.539 123.723 27.7477C124.258 28.1209 124.904 28.3011 125.554 28.2588C126.087 28.2667 126.619 28.195 127.13 28.0459V30.8567H128.386V23.9146ZM130.772 27.6838H135.031V27.3644C135.098 26.8765 135.066 26.3802 134.938 25.9046C134.81 25.4292 134.588 24.9842 134.285 24.5961C133.735 24.0523 132.993 23.7475 132.22 23.7475C131.446 23.7475 130.704 24.0523 130.154 24.5961C129.572 25.3319 129.284 26.2577 129.345 27.194C129.286 28.1727 129.581 29.14 130.175 29.9196C130.488 30.2469 130.865 30.505 131.283 30.6773C131.701 30.8498 132.151 30.9325 132.603 30.9207C133.163 30.9215 133.719 30.8205 134.243 30.6225C134.531 30.5134 134.809 30.378 135.073 30.218L134.69 29.4086C134.431 29.5463 134.16 29.6605 133.881 29.7494C133.529 29.8596 133.163 29.9169 132.795 29.9196C132.215 29.9375 131.651 29.7317 131.219 29.3448C130.881 28.8998 130.714 28.348 130.75 27.7902L130.772 27.6838ZM130.772 26.7682V26.619C130.733 26.0907 130.892 25.5667 131.219 25.1496C131.348 24.9994 131.508 24.8796 131.688 24.7986C131.869 24.7175 132.065 24.6775 132.262 24.6811C132.623 24.6715 132.974 24.8011 133.242 25.0432C133.424 25.2336 133.561 25.4627 133.642 25.7136C133.723 25.9642 133.747 26.2302 133.71 26.4913V26.7682H130.772ZM140.887 29.4938C140.628 29.6315 140.357 29.7455 140.078 29.8346C139.726 29.943 139.36 30.0002 138.991 30.0048C138.487 30.0109 137.996 29.8373 137.607 29.515C137.394 29.2861 137.234 29.0125 137.138 28.7144C137.042 28.4163 137.013 28.1007 137.054 27.7902V26.8746C136.998 26.5236 137.032 26.1644 137.151 25.8296C137.27 25.4948 137.471 25.1952 137.735 24.958C138.034 24.7688 138.382 24.6725 138.736 24.6811C138.922 24.6657 139.11 24.69 139.286 24.7523C139.462 24.8148 139.623 24.914 139.758 25.0432C139.884 25.1907 139.974 25.3661 140.018 25.555C140.063 25.744 140.061 25.9409 140.014 26.1292L141.164 26.0227C141.276 25.67 141.261 25.289 141.121 24.9463C140.981 24.6038 140.725 24.3213 140.397 24.1488C139.911 23.9159 139.381 23.7923 138.843 23.7867C138.132 23.7675 137.433 23.9684 136.841 24.3617C136.424 24.7496 136.102 25.2275 135.899 25.759C135.696 26.2907 135.618 26.8615 135.669 27.4282C135.642 27.9563 135.725 28.4844 135.912 28.9792C136.099 29.474 136.386 29.9246 136.755 30.303C137.351 30.7977 138.112 31.0488 138.885 31.0059C139.439 31.0125 139.989 30.9113 140.503 30.7077C140.792 30.5986 141.07 30.4632 141.334 30.303L140.887 29.4938ZM143.357 23.9146H142.122V30.8567H143.357V27.6625H144.379C144.644 27.6559 144.904 27.7302 145.124 27.8755C145.358 28.0877 145.527 28.3605 145.614 28.6634L146.594 30.7927H147.808L146.679 28.2373C146.553 27.9613 146.38 27.709 146.168 27.4921C145.962 27.2825 145.692 27.1477 145.401 27.1088C145.64 27.0555 145.856 26.929 146.019 26.7467C146.235 26.528 146.389 26.2563 146.466 25.9588L146.679 25.2988C146.731 25.1327 146.818 24.9802 146.935 24.8515C147.023 24.8148 147.123 24.8148 147.211 24.8515C147.337 24.8182 147.469 24.8182 147.595 24.8515L147.765 23.9146C147.514 23.8155 147.247 23.7648 146.977 23.7655C146.801 23.733 146.621 23.733 146.445 23.7655C146.125 23.8932 145.87 24.1063 145.614 24.8727L145.338 25.6607C145.277 25.9088 145.152 26.1365 144.975 26.3209C144.739 26.5038 144.442 26.5877 144.145 26.555H143.165L143.357 23.9146ZM152.663 30.8567H153.791V26.3421C153.844 25.9998 153.823 25.6505 153.731 25.3167C153.64 24.9827 153.479 24.6719 153.259 24.4044C152.65 23.9398 151.894 23.7127 151.13 23.7655C150.393 23.7275 149.659 23.8817 149 24.2127C148.762 24.36 148.579 24.5815 148.479 24.8432C148.379 25.1048 148.367 25.3921 148.446 25.6607H149.596C149.575 25.5002 149.599 25.3367 149.667 25.1896C149.735 25.0425 149.844 24.918 149.98 24.8302C150.296 24.6682 150.647 24.5875 151.002 24.5961C151.396 24.574 151.787 24.6867 152.109 24.9155C152.221 25.0292 152.306 25.1669 152.358 25.318C152.409 25.4692 152.426 25.6298 152.407 25.7886V26.683H151.343C150.469 26.5969 149.591 26.8069 148.851 27.2792C148.609 27.4675 148.416 27.7105 148.286 27.9882C148.157 28.2657 148.095 28.57 148.106 28.8763C148.107 29.158 148.164 29.4367 148.274 29.6963C148.383 29.9559 148.543 30.1911 148.745 30.3882C149.211 30.769 149.805 30.9592 150.406 30.9207C150.858 30.9432 151.308 30.84 151.705 30.6225C152.02 30.4634 152.285 30.2202 152.471 29.9196L152.663 30.8567ZM152.535 29.1105C152.38 29.3675 152.169 29.5859 151.918 29.7494C151.618 29.9555 151.259 30.0598 150.895 30.0475C150.549 30.0782 150.205 29.9711 149.937 29.7494C149.814 29.6502 149.717 29.5232 149.654 29.3784C149.591 29.2338 149.564 29.0763 149.575 28.9188C149.565 28.744 149.594 28.569 149.66 28.4069C149.727 28.2446 149.829 28.0994 149.958 27.9819C150.382 27.6905 150.896 27.5619 151.406 27.6198H152.535V29.1105ZM160.329 23.9146H156.986C156.481 23.9132 155.983 24.0375 155.538 24.2765C155.289 24.4373 155.084 24.658 154.943 24.9186C154.801 25.179 154.728 25.4709 154.729 25.7671C154.732 26.205 154.89 26.6275 155.176 26.9596C155.476 27.2738 155.874 27.4765 156.304 27.5346C156.13 27.6146 155.966 27.7146 155.815 27.8327C155.608 27.9994 155.453 28.2209 155.367 28.4717L154.239 30.8142H155.665L156.539 28.8763C156.66 28.58 156.841 28.3119 157.071 28.0884C157.304 27.9346 157.58 27.8598 157.859 27.8755H158.966V30.8142H160.223L160.329 23.9146ZM159.073 24.9155V26.9171H157.561C156.751 26.9171 156.155 26.619 156.155 25.9375C156.142 25.783 156.169 25.6277 156.232 25.4863C156.295 25.3446 156.393 25.2215 156.517 25.1284C156.806 24.9571 157.142 24.8825 157.476 24.9155H159.073ZM169.103 29.4938C168.853 29.6357 168.589 29.7498 168.315 29.8346C167.963 29.943 167.597 30.0002 167.229 30.0048C166.716 30.0161 166.218 29.8421 165.823 29.515C165.614 29.2842 165.457 29.01 165.365 28.7119C165.273 28.4138 165.248 28.0992 165.291 27.7902V26.8746C165.233 26.5255 165.263 26.1673 165.378 25.8327C165.494 25.498 165.69 25.1973 165.951 24.958C166.251 24.7721 166.599 24.6761 166.952 24.6811C167.141 24.6667 167.332 24.6913 167.511 24.7536C167.691 24.8159 167.856 24.9144 167.995 25.0432C168.122 25.1907 168.211 25.3661 168.255 25.555C168.3 25.744 168.298 25.9409 168.251 26.1292L169.401 26.0227C169.514 25.67 169.498 25.289 169.358 24.9463C169.218 24.6038 168.962 24.3213 168.634 24.1488C168.149 23.9159 167.618 23.7923 167.08 23.7867C166.369 23.7648 165.669 23.9659 165.078 24.3617C164.659 24.7486 164.334 25.2257 164.127 25.7571C163.92 26.2886 163.838 26.86 163.885 27.4282C163.858 27.9582 163.943 28.488 164.134 28.9832C164.325 29.4784 164.617 29.9282 164.993 30.303C165.588 30.7977 166.349 31.0488 167.122 31.0059C167.683 31.0155 168.24 30.914 168.762 30.7077C169.051 30.5986 169.329 30.4632 169.593 30.303L169.103 29.4938ZM170.338 30.8567H173.362C174.024 30.8873 174.675 30.6755 175.193 30.2605C175.389 30.083 175.546 29.8661 175.652 29.6238C175.759 29.3817 175.813 29.1196 175.811 28.855C175.814 28.4527 175.679 28.0615 175.427 27.7477C175.175 27.4913 174.859 27.3073 174.512 27.2152C174.667 27.1786 174.813 27.1107 174.941 27.0155C175.07 26.9202 175.177 26.7998 175.257 26.6615C175.461 26.3675 175.573 26.0188 175.576 25.6607C175.579 25.4373 175.535 25.2157 175.447 25.0102C175.359 24.8048 175.229 24.6202 175.065 24.4682C174.589 24.1073 174.001 23.9263 173.404 23.9571H170.21L170.338 30.8567ZM171.594 24.8302H173.276C173.565 24.8177 173.849 24.9 174.086 25.0644C174.208 25.1496 174.305 25.265 174.369 25.3996C174.432 25.534 174.46 25.6827 174.448 25.8311C174.46 25.9752 174.438 26.1202 174.382 26.2538C174.327 26.3873 174.24 26.5052 174.128 26.5977C173.856 26.7915 173.524 26.8821 173.191 26.8532H171.594V24.8302ZM171.594 27.7477H173.362C173.676 27.7382 173.984 27.8359 174.235 28.0244C174.359 28.1269 174.457 28.2577 174.52 28.4061C174.583 28.5542 174.609 28.7157 174.597 28.8763C174.596 29.0238 174.566 29.1698 174.508 29.3052C174.449 29.4409 174.363 29.563 174.256 29.6642C173.974 29.8565 173.639 29.9534 173.298 29.9411H171.573L171.594 27.7477ZM182.242 23.9146H179.005C178.506 23.9102 178.015 24.035 177.578 24.2765C177.329 24.4373 177.124 24.658 176.983 24.9186C176.842 25.179 176.768 25.4709 176.769 25.7671C176.766 26.2023 176.917 26.6246 177.195 26.9596C177.495 27.2738 177.893 27.4765 178.323 27.5346C178.149 27.6146 177.985 27.7146 177.834 27.8327C177.634 28.0055 177.48 28.225 177.386 28.4717L176.279 30.8142H177.621L178.494 28.8763C178.603 28.5788 178.778 28.3096 179.005 28.0884C179.234 27.9252 179.513 27.8496 179.793 27.8755H180.9V30.8142H182.156L182.242 23.9146ZM180.985 24.9155V26.9171H179.473C178.664 26.9171 178.068 26.619 178.068 25.9375C178.059 25.7836 178.087 25.6294 178.15 25.4886C178.213 25.3477 178.309 25.2242 178.43 25.1284C178.719 24.9571 179.054 24.8825 179.388 24.9155H180.985ZM184.797 27.8115H185.67C186.048 27.7794 186.426 27.8609 186.756 28.0459C186.882 28.1284 186.984 28.2427 187.051 28.3773C187.119 28.5119 187.149 28.6621 187.14 28.8123C187.143 28.9688 187.112 29.1238 187.049 29.2671C186.987 29.4105 186.894 29.5388 186.778 29.643C186.418 29.8992 185.983 30.0267 185.543 30.0048C185.086 29.9925 184.634 29.9136 184.201 29.7707C183.95 29.6794 183.707 29.5652 183.477 29.43L183.03 30.3244C183.3 30.494 183.595 30.6232 183.903 30.7077C184.441 30.9057 185.011 31.0067 185.585 31.0059C186.403 31.065 187.212 30.8057 187.842 30.2817C188.044 30.1065 188.207 29.8909 188.321 29.6488C188.435 29.4067 188.496 29.1436 188.503 28.8763C188.513 28.4986 188.388 28.1294 188.15 27.8363C187.911 27.5432 187.575 27.3455 187.203 27.2792C187.516 27.1444 187.78 26.9169 187.959 26.6275C188.138 26.338 188.223 26.0005 188.204 25.6607C188.207 25.3805 188.138 25.1042 188.004 24.8582C187.87 24.6121 187.675 24.4044 187.438 24.2552C186.895 23.9434 186.274 23.7955 185.649 23.8294C185.005 23.8125 184.368 23.959 183.796 24.2552C183.569 24.4015 183.396 24.618 183.304 24.8719C183.211 25.1257 183.205 25.4027 183.285 25.6607H184.371C184.345 25.503 184.368 25.3409 184.437 25.1963C184.505 25.0519 184.616 24.9315 184.755 24.8515C185.009 24.7125 185.296 24.6463 185.585 24.6598C185.911 24.6342 186.235 24.7248 186.501 24.9155C186.63 25.0244 186.732 25.1619 186.798 25.3173C186.865 25.4725 186.894 25.6411 186.884 25.8098C186.886 26.034 186.811 26.2519 186.671 26.4273C186.511 26.5742 186.323 26.6861 186.118 26.7559C185.912 26.8255 185.695 26.8515 185.479 26.8319H184.797V27.8115ZM190.696 26.47V23.9146H189.418V30.8567H192.378C193.103 30.9105 193.82 30.6815 194.38 30.218C194.594 30.0194 194.765 29.7788 194.882 29.5115C194.999 29.244 195.06 28.9552 195.061 28.6634C195.061 28.3661 194.998 28.0723 194.877 27.8011C194.756 27.5296 194.579 27.2867 194.359 27.0875C193.735 26.6544 192.987 26.4375 192.229 26.47H190.696ZM190.696 27.4709H192.421C192.773 27.4413 193.124 27.548 193.4 27.769C193.524 27.8811 193.621 28.0196 193.684 28.1746C193.746 28.3294 193.773 28.4965 193.762 28.6634C193.776 28.975 193.669 29.28 193.464 29.515C193.33 29.6377 193.172 29.7315 192.999 29.79C192.827 29.8486 192.645 29.8711 192.463 29.8559H190.696V27.4709Z" fill="#1D1D1B"/>
</g>
<defs>
<clipPath id="clip0_1_3122">
<rect width="225" height="50" fill="white" transform="translate(0.75 0.524902)"/>
</clipPath>
</defs>
</svg>
